<?xml version="1.0" ?><!-- Created with Inkscape (http://www.inkscape.org/) --><svg height="1080" id="svg2383" inkscape:output_extension="org.inkscape.output.svg.inkscape" inkscape:version="0.92.3 (2405546, 2018-03-11)" sodipodi:docname="temp.svg" sodipodi:version="0.32" version="1.0" width="1920" xmlns="http://www.w3.org/2000/svg" xmlns:cc="http://creativecommons.org/ns#" xmlns:dc="http://purl.org/dc/elements/1.1/" xmlns:inkscape="http://www.inkscape.org/namespaces/inkscape" xmlns:rdf="http://www.w3.org/1999/02/22-rdf-syntax-ns#" xmlns:sodipodi="http://sodipodi.sourceforge.net/DTD/sodipodi-0.dtd" xmlns:svg="http://www.w3.org/2000/svg" xmlns:xlink="http://www.w3.org/1999/xlink">
  <defs id="defs2385">
    <linearGradient id="linearGradient3787" inkscape:collect="always">
      <stop id="stop3789" offset="0" style="stop-color:#000000;stop-opacity:0"/>
      <stop id="stop3791" offset="1" style="stop-color:#000000;stop-opacity:1"/>
    </linearGradient>
    <linearGradient id="linearGradient3190" inkscape:collect="always">
      <stop id="stop3192" offset="0" style="stop-color:#324da7;stop-opacity:1"/>
      <stop id="stop3194" offset="1" style="stop-color:#324da7;stop-opacity:0;"/>
    </linearGradient>
    <linearGradient id="linearGradient3267" inkscape:collect="always">
      <stop id="stop3269" offset="0" style="stop-color:#0000ff;stop-opacity:0"/>
      <stop id="stop3275" offset="0.48768985" style="stop-color:#ffffff;stop-opacity:1"/>
      <stop id="stop3271" offset="1" style="stop-color:#0000ff;stop-opacity:0;"/>
    </linearGradient>
    <inkscape:perspective id="perspective2391" inkscape:persp3d-origin="372.04724 : 350.78739 : 1" inkscape:vp_x="0 : 526.18109 : 1" inkscape:vp_y="0 : 1000 : 0" inkscape:vp_z="744.09448 : 526.18109 : 1" sodipodi:type="inkscape:persp3d"/>
    <linearGradient gradientTransform="matrix(0.4475832,0,0,1.1594093,-317.72844,-354.23847)" gradientUnits="userSpaceOnUse" id="linearGradient3273" inkscape:collect="always" x1="333.26617" x2="1668.8561" xlink:href="#linearGradient3267" y1="671.26709" y2="671.26709"/>
    <linearGradient gradientTransform="matrix(0.4475832,0,0,1.1594093,-317.72845,-255.93349)" gradientUnits="userSpaceOnUse" id="linearGradient3463" inkscape:collect="always" x1="333.26617" x2="1668.8561" xlink:href="#linearGradient3267" y1="671.26709" y2="671.26709"/>
    <linearGradient gradientTransform="translate(-480.00173,0)" gradientUnits="userSpaceOnUse" id="linearGradient3196" inkscape:collect="always" x1="1917.6716" x2="1622.8263" xlink:href="#linearGradient3190" y1="542.59882" y2="542.59882"/>
    <linearGradient gradientTransform="matrix(-1,0,0,1,1920.0025,7.77e-2)" gradientUnits="userSpaceOnUse" id="linearGradient3200" inkscape:collect="always" x1="1917.6716" x2="1622.8263" xlink:href="#linearGradient3190" y1="542.59882" y2="542.59882"/>
    <linearGradient gradientTransform="translate(-1.0019302,-25)" gradientUnits="userSpaceOnUse" id="linearGradient3795" inkscape:collect="always" x1="146.66714" x2="93.029869" xlink:href="#linearGradient3787" y1="471.47937" y2="417.8421"/>
    <linearGradient gradientUnits="userSpaceOnUse" id="linearGradient3795-5" inkscape:collect="always" x1="146.66714" x2="93.029869" xlink:href="#linearGradient3787-0" y1="471.47937" y2="417.8421"/>
    <linearGradient id="linearGradient3787-0" inkscape:collect="always">
      <stop id="stop3789-9" offset="0" style="stop-color:#000000;stop-opacity:0"/>
      <stop id="stop3791-6" offset="1" style="stop-color:#000000;stop-opacity:1"/>
    </linearGradient>
    <linearGradient gradientTransform="translate(-764,-325.00193)" gradientUnits="userSpaceOnUse" id="linearGradient3812" inkscape:collect="always" x1="146.66714" x2="93.029869" xlink:href="#linearGradient3787-0" y1="471.47937" y2="417.8421"/>
    <linearGradient gradientTransform="translate(-768,-2215.498)" gradientUnits="userSpaceOnUse" id="linearGradient3812-5" inkscape:collect="always" x1="146.66714" x2="93.029869" xlink:href="#linearGradient3787-0-6" y1="471.47937" y2="417.8421"/>
    <linearGradient id="linearGradient3787-0-6" inkscape:collect="always">
      <stop id="stop3789-9-0" offset="0" style="stop-color:#000000;stop-opacity:0"/>
      <stop id="stop3791-6-6" offset="1" style="stop-color:#000000;stop-opacity:1"/>
    </linearGradient>
    <linearGradient gradientUnits="userSpaceOnUse" id="linearGradient3795-3" inkscape:collect="always" x1="146.66714" x2="93.029869" xlink:href="#linearGradient3787-9" y1="471.47937" y2="417.8421"/>
    <linearGradient id="linearGradient3787-9" inkscape:collect="always">
      <stop id="stop3789-5" offset="0" style="stop-color:#000000;stop-opacity:0"/>
      <stop id="stop3791-8" offset="1" style="stop-color:#000000;stop-opacity:1"/>
    </linearGradient>
    <linearGradient gradientTransform="translate(-1891.498,-21)" gradientUnits="userSpaceOnUse" id="linearGradient3851" inkscape:collect="always" x1="146.66714" x2="93.029869" xlink:href="#linearGradient3787-9" y1="471.47937" y2="417.8421"/>
    <linearGradient gradientTransform="translate(-1.0019302,-25)" gradientUnits="userSpaceOnUse" id="linearGradient3896" inkscape:collect="always" x1="146.66714" x2="93.029869" xlink:href="#linearGradient3787" y1="471.47937" y2="417.8421"/>
    <linearGradient gradientTransform="translate(-764,-325.00193)" gradientUnits="userSpaceOnUse" id="linearGradient3898" inkscape:collect="always" x1="146.66714" x2="93.029869" xlink:href="#linearGradient3787-0" y1="471.47937" y2="417.8421"/>
  </defs>
  <sodipodi:namedview bordercolor="#666666" borderopacity="1.0" gridtolerance="10000" guidetolerance="10" id="base" inkscape:current-layer="layer1" inkscape:cx="1055.7353" inkscape:cy="561.89378" inkscape:document-units="px" inkscape:pageopacity="0.0" inkscape:pageshadow="2" inkscape:window-height="1025" inkscape:window-maximized="1" inkscape:window-width="1881" inkscape:window-x="39" inkscape:window-y="27" inkscape:zoom="0.5" objecttolerance="10" pagecolor="#ffffff" showgrid="false"/>
  <metadata id="metadata2388">
    <rdf:RDF>
      <cc:Work rdf:about="">
        <dc:format>image/svg+xml</dc:format>
        <dc:type rdf:resource="http://purl.org/dc/dcmitype/StillImage"/>
        <dc:title/>
      </cc:Work>
    </rdf:RDF>
  </metadata>
  <g id="layer1" inkscape:groupmode="layer" inkscape:label="Layer 1" transform="translate(1.9328e-3,0)">
    <rect height="1080.0051" id="rect3160" rx="0" ry="0" style="opacity:0;fill:#e0e7ff;fill-opacity:1;stroke:none;stroke-width:1;stroke-miterlimit:4;stroke-dasharray:none;stroke-opacity:1" width="1920" x="-0.0019328" y="-0.0051269531"/>
    <text id="text3005" style="font-weight:normal;line-height:0%;font-family:Ubuntu Condensed;text-align:center;letter-spacing:0px;word-spacing:0px;text-anchor:middle;opacity:1;fill:#00ff00;fill-opacity:1;stroke:none" x="959.99811" xml:space="preserve" y="575.09833"><tspan id="tspan3007" sodipodi:role="line" style="font-weight:bold;font-size:96.42027283px;line-height:1.25;text-align:center;text-anchor:middle;fill:#00ff00;fill-opacity:1" x="959.99811" y="575.09833">Mutant Monsters from Mars</tspan></text>
  </g>
</svg>